<svg xmlns="http://www.w3.org/2000/svg" viewBox="0 0 16 16">
    <defs>
        <style>.cls-1{fill:#fff;}.cls-2{fill:#f8a136;}</style>
    </defs>
    <title>14</title>
    <g id="Layer_2" data-name="Layer 2">
        <g id="Ux_-_Ui_Style_Guide_28" data-name="Ux - Ui Style Guide 28">
            <ellipse class="cls-1" cx="8" cy="8" rx="8" ry="8"/>
            <path class="cls-2" d="M13.72,7.61a5.72,5.72,0,0,1-11.43,0V5.32H.57A.58.58,0,0,1,0,4.75a.57.57,0,0,1,.57-.57H2.86a.57.57,0,0,1,.58.57V7.61a4.57,4.57,0,0,0,9.14,0A.57.57,0,0,1,13.15,7,.58.58,0,0,1,13.72,7.61Z"/>
            <rect class="cls-2" x="5.69" y="6.46" width="1.14" height="2.29" rx="0.57" ry="0.57"/>
            <rect class="cls-2" x="9.16" y="6.46" width="1.14" height="2.29" rx="0.57" ry="0.57"/>
            <circle class="cls-2" cx="5.7" cy="14.46" r="1.14"/>
            <circle class="cls-2" cx="10.31" cy="14.46" r="1.14"/>
        </g>
    </g>
</svg>